{
    "source" : ["./bin/tb"],
    "bundle_id" : "com.throbol.tb",
    "apple_id": {
        "username" : "tlb@tlb.org",
        "password":  "@keychain:developer.apple.com"
    },
    "sign" :{
        "application_identity" : "Developer ID Application: Trevor Blackwell"
    },
    "dmg" :{
        "output_path":  "build.dist/throbol.dmg",
        "volume_name":  "Throbol"
    }
}
